<?xml version="1.0" encoding="utf-8"?>
<!-- Generator: Adobe Illustrator 16.0.0, SVG Export Plug-In . SVG Version: 6.00 Build 0)  -->
<!DOCTYPE svg PUBLIC "-//W3C//DTD SVG 1.1//EN" "http://www.w3.org/Graphics/SVG/1.1/DTD/svg11.dtd">
<svg version="1.1" id="Layer_1" xmlns="http://www.w3.org/2000/svg" xmlns:xlink="http://www.w3.org/1999/xlink" x="0px" y="0px"
	 width="141px" height="125.75px" viewBox="0 0 141 125.75" enable-background="new 0 0 141 125.75" xml:space="preserve">
<g>
	<g>
		<path fill="#626E85" d="M1017.335,202.357h-4v-12.463c-2.752-1.553-10.185-5.813-12.902-8.037
			c-3.743-3.064-15.668-23.979-17.932-28.507c-1.37-2.742-0.756-5.562,1.603-7.356c2.937-2.236,8.436-2.472,12.839,1.493
			c4.645,4.181,9.572,9.37,11.494,11.429c7.145-1.641,20.403-0.191,26.748,16.022l-3.725,1.458
			c-7.036-17.979-22.433-13.524-23.082-13.326l-1.206,0.367l-0.857-0.927c-0.063-0.069-6.385-6.954-12.048-12.05
			c-2.979-2.682-6.32-2.365-7.74-1.284c-0.811,0.616-0.952,1.374-0.447,2.386c2.833,5.667,14.214,25.012,16.887,27.199
			c3.016,2.468,13.237,8.155,13.341,8.213l1.028,0.571V202.357z"/>
	</g>
	<g>
		<path fill="#626E85" d="M1056.373,202.357h-4v-14.25l1.423-0.429c4.147-1.251,6.251-4.688,6.251-10.212
			c0-4.629,0.559-23.125,0.582-23.91l0.009-0.289l0.09-0.273c0.055-0.168,5.512-16.846,7.217-23.385
			c0.824-3.156-1.119-5.732-2.839-6.377c-1.01-0.379-1.333,0.072-1.56,0.525c-2.263,4.52-9.728,22.883-9.803,23.068l-3.964,9.758
			l0.111-10.531c0.003-0.275,0.287-27.562,0.003-32.949c-0.089-1.699-1.213-2.366-2.235-2.424c-0.985-0.059-2.229,0.452-2.497,2.064
			c-0.857,5.151-4.888,31.338-4.929,31.602l-2.39,15.53l-1.577-15.634c-0.031-0.316-3.195-31.684-3.771-37.125
			c-0.204-1.943-2.017-2.602-3.172-2.564c-0.859,0.023-2.316,0.375-2.415,2.449c-0.286,6.029-2.015,37.986-2.032,38.308
			l-0.482,8.911l-3.367-8.265c-0.096-0.234-9.598-23.554-12.458-30.13c-0.963-2.218-2.009-1.908-2.454-1.775
			c-1.579,0.467-2.875,2.4-2.732,3.259c0.315,1.899,2.918,11.62,5.01,19.43c1.681,6.277,3.133,11.699,3.393,13.004
			c0.648,3.245-1.627,10.589-2.09,12.028l-3.809-1.224c1.019-3.171,2.305-8.376,1.977-10.021c-0.235-1.179-1.741-6.8-3.335-12.753
			c-2.332-8.711-4.744-17.717-5.091-19.807c-0.499-2.994,2.194-6.762,5.543-7.752c3.062-0.904,5.772,0.598,7.257,4.017
			c1.773,4.077,6.066,14.507,9.125,21.971c0.538-10.011,1.361-25.4,1.551-29.391c0.201-4.204,3.308-6.173,6.297-6.258
			c3.241-0.064,6.833,2.032,7.265,6.144c0.3,2.838,1.303,12.71,2.198,21.563c1.055-6.79,2.144-13.763,2.545-16.173
			c0.562-3.373,3.298-5.58,6.669-5.402c3.354,0.189,5.822,2.742,6.003,6.207c0.177,3.339,0.145,14.4,0.089,22.855
			c2.218-5.326,4.777-11.354,5.992-13.779c1.26-2.525,3.826-3.5,6.543-2.481c3.595,1.35,6.645,5.989,5.304,11.132
			c-1.636,6.27-6.452,21.066-7.197,23.346c-0.072,2.414-0.571,19.243-0.571,23.502c0,6.673-2.711,11.418-7.674,13.527V202.357z"/>
	</g>
	<g>
		<path fill="#626E85" d="M1054.306,215.117h-34.376c-11.539,0-22.379-7.273-22.835-7.582l2.246-3.311
			c0.103,0.069,10.3,6.893,20.589,6.893h34.376c4.589,0,13.876-2.456,14.521-5.816l3.928,0.755
			C1071.443,212.887,1058.588,215.117,1054.306,215.117z"/>
	</g>
	<g>
		<path fill="#626E85" d="M1019.809,225.367c-0.446-0.027-11.068-0.688-21.936-2.875c-15.654-3.152-23.364-7.711-23.569-13.934
			c-0.518-15.826,31.084-18.058,32.429-18.145l0.26,3.991c-8.09,0.529-29.016,4.079-28.69,14.022
			c0.237,7.203,24.557,11.907,41.749,12.946L1019.809,225.367z"/>
	</g>
	<g>
		<path fill="#626E85" d="M1050.085,225.777c-0.165,0-0.318-0.002-0.459-0.006l0.113-3.998c6.233,0.16,35.628-3.863,42.818-11.361
			c0.989-1.03,1.436-2.008,1.367-2.986c-0.562-8.011-21.362-12.345-28.604-13.231l0.486-3.971
			c3.192,0.392,31.215,4.187,32.108,16.922c0.15,2.14-0.681,4.17-2.47,6.036C1086.996,221.991,1057.276,225.777,1050.085,225.777z"
			/>
	</g>
</g>
<g>
	<g>
		<path fill="#D3AA2A" d="M53.125,99.135h-3.701v-11.53c-2.546-1.437-9.422-5.379-11.937-7.436
			c-3.464-2.835-14.496-22.184-16.59-26.374c-1.268-2.537-0.699-5.145,1.482-6.806c2.717-2.069,7.804-2.287,11.878,1.381
			c4.297,3.867,8.856,8.669,10.635,10.573c6.609-1.518,18.876-0.177,24.746,14.824l-3.445,1.349
			c-6.51-16.633-20.755-12.513-21.355-12.329l-1.116,0.34l-0.793-0.857c-0.059-0.064-5.907-6.433-11.146-11.148
			c-2.757-2.481-5.848-2.188-7.161-1.188c-0.75,0.571-0.881,1.272-0.414,2.207c2.621,5.244,13.15,23.141,15.624,25.164
			c2.79,2.283,12.247,7.545,12.343,7.599l0.951,0.528V99.135z"/>
	</g>
	<g>
		<path fill="#D3AA2A" d="M89.242,99.135h-3.701V85.951l1.316-0.396c3.838-1.157,5.783-4.337,5.783-9.448
			c0-4.282,0.518-21.395,0.539-22.121l0.008-0.267l0.083-0.253c0.051-0.155,5.1-15.586,6.677-21.635
			c0.763-2.92-1.035-5.303-2.626-5.9c-0.935-0.35-1.233,0.067-1.443,0.486c-2.093,4.182-8.999,21.172-9.069,21.343l-3.667,9.029
			l0.104-9.745c0.002-0.254,0.266-25.5,0.002-30.484c-0.082-1.572-1.122-2.189-2.067-2.243c-0.912-0.054-2.062,0.419-2.311,1.911
			c-0.793,4.766-4.522,28.994-4.56,29.237l-2.21,14.368l-1.46-14.464c-0.028-0.292-2.956-29.314-3.489-34.348
			c-0.188-1.797-1.865-2.406-2.935-2.373c-0.795,0.022-2.143,0.347-2.234,2.266c-0.265,5.579-1.863,35.145-1.88,35.442l-0.446,8.245
			l-3.115-7.646c-0.089-0.217-8.88-21.791-11.526-27.876c-0.891-2.052-1.858-1.765-2.271-1.643
			c-1.461,0.433-2.659,2.222-2.527,3.016c0.292,1.757,2.699,10.75,4.635,17.976c1.555,5.808,2.898,10.824,3.139,12.031
			c0.6,3.002-1.505,9.797-1.934,11.128l-3.523-1.132c0.942-2.933,2.132-7.749,1.829-9.271c-0.218-1.09-1.611-6.292-3.086-11.799
			c-2.157-8.059-4.389-16.392-4.71-18.325c-0.462-2.77,2.03-6.255,5.128-7.171c2.834-0.837,5.341,0.553,6.714,3.716
			c1.642,3.771,5.613,13.421,8.442,20.327c0.498-9.261,1.26-23.5,1.436-27.191c0.186-3.89,3.06-5.711,5.825-5.79
			c2.999-0.06,6.322,1.88,6.722,5.684c0.277,2.626,1.205,11.759,2.033,19.95c0.976-6.282,1.983-12.733,2.354-14.963
			c0.521-3.12,3.052-5.163,6.17-4.998c3.103,0.176,5.387,2.538,5.554,5.743c0.164,3.088,0.134,13.323,0.083,21.145
			c2.052-4.928,4.42-10.505,5.543-12.749c1.166-2.336,3.54-3.238,6.054-2.295c3.326,1.249,6.147,5.542,4.907,10.3
			c-1.514,5.799-5.97,19.489-6.659,21.598c-0.066,2.234-0.528,17.803-0.528,21.743c0,6.174-2.508,10.563-7.1,12.516V99.135z"/>
	</g>
	<g>
		<path fill="#D3AA2A" d="M87.329,110.94H55.526c-10.676,0-20.705-6.729-21.127-7.015l2.078-3.063
			c0.096,0.064,9.529,6.377,19.049,6.377h31.803c4.246,0,12.838-2.272,13.436-5.381l3.634,0.698
			C103.185,108.877,91.291,110.94,87.329,110.94z"/>
	</g>
	<g>
		<path fill="#D3AA2A" d="M55.414,120.423c-0.413-0.024-10.24-0.636-20.294-2.659c-14.483-2.917-21.616-7.135-21.806-12.892
			C12.834,90.23,42.072,88.166,43.316,88.085l0.24,3.692c-7.484,0.49-26.845,3.774-26.544,12.974
			c0.22,6.664,22.72,11.017,38.626,11.978L55.414,120.423z"/>
	</g>
	<g>
		<path fill="#D3AA2A" d="M83.425,120.803c-0.153,0-0.295-0.002-0.425-0.006l0.104-3.698c5.768,0.147,32.963-3.574,39.615-10.512
			c0.915-0.953,1.328-1.857,1.265-2.763c-0.52-7.411-19.764-11.421-26.465-12.241l0.45-3.674c2.954,0.362,28.88,3.873,29.706,15.655
			c0.14,1.98-0.63,3.858-2.284,5.585C117.574,117.3,90.078,120.803,83.425,120.803z"/>
	</g>
</g>
</svg>
