<?xml version="1.0" encoding="utf-8"?>
<!-- Generator: Adobe Illustrator 16.0.0, SVG Export Plug-In . SVG Version: 6.00 Build 0)  -->
<!DOCTYPE svg PUBLIC "-//W3C//DTD SVG 1.1//EN" "http://www.w3.org/Graphics/SVG/1.1/DTD/svg11.dtd">
<svg version="1.1" id="OBJECTS" xmlns="http://www.w3.org/2000/svg" xmlns:xlink="http://www.w3.org/1999/xlink" x="0px" y="0px"
	 width="77px" height="71px" viewBox="0 0 77 71" enable-background="new 0 0 77 71" xml:space="preserve">
<g>
	<circle fill="#FFFFFF" cx="29.486" cy="58.199" r="5.59"/>
	<circle fill="#FFFFFF" cx="53.879" cy="58.199" r="5.59"/>
	<path fill="#FFFFFF" d="M68.115,21.97c-7.139,0-34.5,0-34.5,0s-2.039,0.463-2.039,2.703c0,2.246,2.039,2.897,2.039,2.897h30.932
		l-1.738,5.881c-8.467,0-30.4,0-30.4,0s-1.9,0.43-1.9,2.514c0,2.094,1.9,2.703,1.9,2.703h28.797h0.064l-1.631,5.501H28.25
		l-2.084-16.601L25.49,21.97c0,0-0.607-5.172-0.949-7.305C24.199,12.517,18.836,9.834,7.307,4.4c-2.712-1.138-4.979,3.822,0,6.418
		l9.092,4.247c0,0,2.114,1.229,2.296,2.875c0.182,1.656,3.871,29.003,3.871,29.003s0.147,3.809,3.606,3.809
		c3.455,0,31.795,0,34.691,0c2.904,0,3.469-3.035,3.469-3.035l6.875-20.418C71.207,27.299,73.246,21.97,68.115,21.97z"/>
</g>
</svg>
