<?xml version="1.0" encoding="utf-8"?>
<!-- Generator: Adobe Illustrator 16.0.0, SVG Export Plug-In . SVG Version: 6.00 Build 0)  -->
<!DOCTYPE svg PUBLIC "-//W3C//DTD SVG 1.1//EN" "http://www.w3.org/Graphics/SVG/1.1/DTD/svg11.dtd">
<svg version="1.1" id="OBJECTS" xmlns="http://www.w3.org/2000/svg" xmlns:xlink="http://www.w3.org/1999/xlink" x="0px" y="0px"
	 width="107px" height="104px" viewBox="0 0 107 104" enable-background="new 0 0 107 104" xml:space="preserve">
<polygon fill="#A4CD39" points="50.771,41.457 60.816,22.422 71.504,41.457 "/>
<polygon fill="#922169" points="41.369,98.564 51.42,79.523 62.107,98.564 "/>
<polygon fill="#572466" points="62.092,98.564 72.141,79.523 82.832,98.564 "/>
<polygon fill="#16AEE5" points="82.203,60.488 92.254,41.457 102.941,60.488 "/>
<polygon fill="#0D395B" points="72.156,79.523 82.203,60.488 92.895,79.523 "/>
<polygon fill="#0A6836" points="71.504,41.457 81.553,22.422 92.24,41.457 "/>
<polygon fill="#C32126" points="40.08,22.422 50.771,41.457 60.816,22.422 "/>
<polygon fill="#F16123" points="37.609,38.174 40.171,33.318 42.898,38.174 "/>
<polygon fill="#F9A11D" points="34.883,33.318 37.609,38.174 40.171,33.318 "/>
<polygon fill="#823F97" points="72.156,79.523 82.84,98.564 92.895,79.523 "/>
<polygon fill="#34A784" points="71.518,41.457 82.203,60.488 92.256,41.457 "/>
<polygon fill="#2FAB4A" points="60.816,22.422 71.502,41.457 81.553,22.422 "/>
<polygon fill="#BB1E80" points="51.42,79.523 62.107,98.564 72.156,79.523 "/>
<polygon fill="#0E7DC1" points="82.203,60.488 92.895,79.523 102.941,60.488 "/>
<polygon fill="#F17D21" points="55.022,48.262 62.252,59.959 69.164,48.262 "/>
<polygon fill="#F48026" points="69.539,71.66 62.252,59.959 55.34,71.66 "/>
<polygon fill="#F16123" points="69.164,48.262 76.393,59.959 69.537,71.66 62.252,59.959 "/>
<polygon fill="#F9A11D" points="55.022,48.262 62.252,59.959 55.393,71.66 48.111,59.959 "/>
<polygon fill="#AB1F24" points="21.127,35.984 25.791,27.142 30.756,35.984 "/>
<polygon fill="#C32126" points="16.16,27.142 21.127,35.984 25.791,27.142 "/>
<polygon fill="#572466" points="9.276,20.127 14.123,10.95 19.275,20.127 "/>
<polygon fill="#823F97" points="4.125,10.95 9.276,20.127 14.123,10.95 "/>
<polygon fill="#0D395B" points="29.904,13.021 34.029,5.208 38.418,13.021 "/>
<polygon fill="#0E7DC1" points="25.514,5.208 29.904,13.021 34.029,5.208 "/>
<polygon fill="#0A6836" points="29.074,24.506 32.41,18.191 35.953,24.506 "/>
<polygon fill="#2FAB4A" points="25.527,18.191 29.074,24.506 32.41,18.191 "/>
</svg>
