<?xml version="1.0" encoding="utf-8"?>
<!-- Generator: Adobe Illustrator 16.0.0, SVG Export Plug-In . SVG Version: 6.00 Build 0)  -->
<!DOCTYPE svg PUBLIC "-//W3C//DTD SVG 1.1//EN" "http://www.w3.org/Graphics/SVG/1.1/DTD/svg11.dtd">
<svg version="1.1" id="Layer_1" xmlns="http://www.w3.org/2000/svg" xmlns:xlink="http://www.w3.org/1999/xlink" x="0px" y="0px"
	 width="141px" height="125.75px" viewBox="0 0 141 125.75" enable-background="new 0 0 141 125.75" xml:space="preserve">
<g>
	<g>
		<path fill="#626E85" d="M115.185,34.782c-5.259,0-9.536-4.278-9.536-9.536s4.277-9.535,9.536-9.535
			c5.258,0,9.534,4.277,9.534,9.535S120.442,34.782,115.185,34.782z M115.185,21.395c-2.124,0-3.853,1.728-3.853,3.851
			c0,2.124,1.729,3.852,3.853,3.852c2.123,0,3.851-1.728,3.851-3.852C119.035,23.122,117.308,21.395,115.185,21.395z"/>
	</g>
	<g>
		<path fill="#626E85" d="M95.284,85.797c-5.258,0-9.535-4.275-9.535-9.535c0-5.258,4.277-9.535,9.535-9.535
			c5.259,0,9.536,4.277,9.536,9.535C104.82,81.521,100.543,85.797,95.284,85.797z M95.284,72.41c-2.123,0-3.852,1.729-3.852,3.852
			c0,2.125,1.729,3.852,3.852,3.852c2.125,0,3.853-1.727,3.853-3.852C99.137,74.139,97.409,72.41,95.284,72.41z"/>
	</g>
	<g>
		<path fill="#626E85" d="M69.956,60.11c-5.257,0-9.534-4.279-9.534-9.537c0-5.258,4.277-9.536,9.534-9.536
			c5.259,0,9.537,4.278,9.537,9.536C79.493,55.831,75.215,60.11,69.956,60.11z M69.956,46.722c-2.123,0-3.85,1.728-3.85,3.851
			c0,2.125,1.727,3.852,3.85,3.852c2.125,0,3.853-1.728,3.853-3.852C73.809,48.45,72.081,46.722,69.956,46.722z"/>
	</g>
	<g>
		<path fill="#626E85" d="M47.163,85.074c-5.259,0-9.537-4.277-9.537-9.535s4.278-9.537,9.537-9.537
			c5.257,0,9.534,4.279,9.534,9.537S52.42,85.074,47.163,85.074z M47.163,71.688c-2.125,0-3.853,1.729-3.853,3.852
			s1.728,3.852,3.853,3.852c2.123,0,3.851-1.729,3.851-3.852S49.286,71.688,47.163,71.688z"/>
	</g>
	<g>
		<path fill="#626E85" d="M22.921,110.039c-5.258,0-9.536-4.277-9.536-9.535s4.278-9.535,9.536-9.535s9.536,4.277,9.536,9.535
			S28.179,110.039,22.921,110.039z M22.921,96.652c-2.124,0-3.853,1.727-3.853,3.852c0,2.123,1.729,3.852,3.853,3.852
			s3.852-1.729,3.852-3.852C26.772,98.379,25.045,96.652,22.921,96.652z"/>
	</g>
	<g>
		
			<rect x="102.392" y="31.67" transform="matrix(0.9321 0.3622 -0.3622 0.9321 25.8607 -34.6121)" fill="#626E85" width="5.683" height="39.979"/>
	</g>
	<g>
		
			<rect x="71.327" y="60.485" transform="matrix(0.7071 0.7071 -0.7071 0.7071 69.0031 -39.9375)" fill="#626E85" width="22.769" height="5.684"/>
	</g>
	<g>
		
			<rect x="55.536" y="53.529" transform="matrix(0.768 0.6404 -0.6404 0.768 54.1551 -22.6754)" fill="#626E85" width="5.685" height="19.779"/>
	</g>
	<g>
		
			<rect x="32.2" y="77.788" transform="matrix(0.707 0.7072 -0.7072 0.707 72.5147 1.007)" fill="#626E85" width="5.684" height="20.467"/>
	</g>
	<g>
		<rect x="6.097" y="23.309" fill="#626E85" width="96.244" height="5.684"/>
	</g>
	<g>
		<rect x="127.666" y="23.309" fill="#626E85" width="7.237" height="5.684"/>
	</g>
	<g>
		<rect x="6.097" y="47.912" fill="#626E85" width="51.016" height="5.684"/>
	</g>
	<g>
		<rect x="6.097" y="72.152" fill="#626E85" width="31.117" height="5.686"/>
	</g>
	<g>
		<rect x="59.646" y="72.152" fill="#626E85" width="23.157" height="5.686"/>
	</g>
	<g>
		<rect x="106.681" y="72.152" fill="#626E85" width="27.861" height="5.686"/>
	</g>
	<g>
		<rect x="35.403" y="97.119" fill="#626E85" width="99.139" height="5.684"/>
	</g>
	<g>
		<rect x="6.458" y="97.119" fill="#626E85" width="5.428" height="5.684"/>
	</g>
	<g>
		<rect x="84.11" y="47.912" fill="#626E85" width="50.299" height="5.684"/>
	</g>
</g>
</svg>
