<?xml version="1.0" encoding="utf-8"?>
<!-- Generator: Adobe Illustrator 16.0.0, SVG Export Plug-In . SVG Version: 6.00 Build 0)  -->
<!DOCTYPE svg PUBLIC "-//W3C//DTD SVG 1.1//EN" "http://www.w3.org/Graphics/SVG/1.1/DTD/svg11.dtd">
<svg version="1.1" id="Layer_1" xmlns="http://www.w3.org/2000/svg" xmlns:xlink="http://www.w3.org/1999/xlink" x="0px" y="0px"
	 width="141px" height="125.75px" viewBox="0 0 141 125.75" enable-background="new 0 0 141 125.75" xml:space="preserve">
<g>
	<path fill="#626E85" d="M68.328,42.553c-10.645,0.925-19.238,9.625-18.705,20.584c0.544,11.189,9.95,19.685,21.008,19.801
		C98.165,83.229,95.251,39.313,68.328,42.553z M70.631,79.571c-9.246,0.022-17.081-7.179-17.641-16.434
		c-0.544-9.004,6.525-16.45,15.337-17.216C90.883,43.207,93.868,79.514,70.631,79.571z"/>
	<path fill="#626E85" d="M128.047,63.749c-0.095-2.846,0.914-8.559-1.639-10.701c-2.447-2.053-8.239-1.581-11.884-1.633
		c-0.85-2.85-1.505-5.827-2.635-8.552c-0.447-1.079-2.265-3.247-1.932-4.258c0.495-1.502,5.419-3.753,6.509-5.335
		c0.888-1.291,1.405-2.558,1.002-4.145c-0.686-2.692-3.968-4.769-5.825-6.505c-1.87-1.75-4.269-5.047-6.732-6.04
		c-3.971-1.602-7.875,3.841-10.514,6.858c-3.193-1.866-6.427-2.879-9.764-4.445c-2.379-1.117-2.823-1.169-3.321-3.569
		c-0.403-1.947,0.325-4.172-0.148-6.218c-1.382-5.966-7.617-4.161-12.32-3.781c-4.817,0.388-10.227-0.51-10.481,5.493
		c-0.081,1.917,0.906,4.428,0.229,6.272c-0.581,1.584-1.021,1.18-3.178,1.965c-3.339,1.215-6.407,2.67-9.385,4.551
		c-2.317-2.851-4.986-6.776-8.902-6.587c-4.167,0.201-8.146,5.518-10.774,8.215C20.958,30.87,26.6,34.661,30.7,38.874
		c-2.883,3.981-4.897,8.243-6.148,12.982c-3.687-0.706-8.866-1.227-11.445,1.335c-2.68,2.664-1.425,9.528-1.173,12.78
		c0.221,2.85,0.103,6.529,2.836,8.074c2.694,1.521,7.16,0.81,10.417,0.352c0.769,2.961,1.696,5.866,2.926,8.678
		c0.287,0.66,1.581,2.471,1.488,3.087c-0.026,0.171-0.771,0.723-1.052,1.215c-1.566,2.745-7.097,5.257-5.737,9.305
		c1.276,3.8,9.186,10.606,12.972,12.069c4.21,1.626,7.734-2.864,10.576-5.8c3.984,2.847,8.239,4.596,13.091,5.309
		c-0.202,3.727-1.632,8.908,0.657,11.59c1.716,2.014,5.777,1.57,7.982,1.626c2.959,0.072,6.755,0.5,9.568-0.619
		c2.03-0.809,3.079-1.98,3.519-4.096c0.456-2.19-1.509-6.16-0.525-7.927c0.82-1.479,5.754-2.354,7.563-3.315
		c3.005-1.595,5.509-4.548,8.654-1.73c3.319,2.971,4.806,8.112,9.567,5.225c3.493-2.118,7.382-6.21,9.461-9.648
		c2.35-3.887,0.638-5.393-2.421-8.142c-3.106-2.793-4.28-2.622-2.445-6.806c1.508-3.434,2.568-6.962,3.675-10.529
		c3.587,0.188,8.857,1.044,11.648-0.74C129.242,71.299,128.137,66.487,128.047,63.749z M122.578,70.42
		c-2.446,0.771-6.539,0.046-9.1,0.064c-0.563,0.004-0.978,0.237-1.248,0.577c-0.16,0.172-0.29,0.389-0.375,0.659
		c-1.498,4.755-3.67,9.136-5.345,13.725c-0.751,2.056-0.491,3.156,0.813,4.833c1.461,1.875,5.006,3.111,5.888,5.286
		c0.932,2.297-3.638,6.244-5.074,7.674c-0.755,0.751-2.077,2.374-3.126,2.655c-2.056,0.548-2.788-0.914-4.248-2.612
		c-1.482-1.725-2.996-4.444-5.521-4.754c-1.765-0.219-3.689,1.179-5.161,1.997c-3.81,2.117-7.104,3.818-11.457,4.553
		c-0.508,0.086-1.105,0.657-1.178,1.175c-0.296,2.164,0.199,4.142,0.208,6.297c0.021,5.717-4.969,5.673-9.565,5.558
		c-4.091-0.103-5.63-0.097-5.472-4.365c0.084-2.295,0.368-4.654,0.201-6.947c-0.072-0.976-0.718-1.592-1.684-1.684
		c-5.151-0.494-9.678-2.33-13.755-5.545c-0.211-0.166-0.435-0.275-0.661-0.334c-0.54-0.208-1.174-0.162-1.72,0.334
		c-1.479,1.346-4.236,5.059-6.12,5.605c-3.271,0.957-6.233-2.854-8.324-4.844c-1.664-1.583-4.65-3.524-3.802-6.124
		c0.59-1.812,3.295-3.578,4.654-4.869c1.484-1.409,2.033-1.835,1.567-3.848c-0.523-2.256-2.14-4.452-2.943-6.652
		c-0.806-2.205-1.41-4.456-1.96-6.736c-0.156-0.647-0.917-1.321-1.622-1.236c-1.765,0.211-3.535,0.395-5.31,0.455
		c-3.199,0.11-4.907,0.475-5.571-3.078c-0.478-2.56-0.766-5.785-0.438-8.359c0.185-1.455,0.306-3.863,1.749-4.777
		c1.64-1.039,6.833-0.014,8.463,0.351c0.856,0.191,1.863-0.253,2.071-1.176c1.234-5.473,3.495-10.248,6.912-14.689
		c0.47-0.611,0.185-1.526-0.265-2.04c-2.425-2.776-7.971-5.897-5.327-9.833c0.981-1.46,4.09-4.659,5.674-5.399
		c4.994-2.335,6.972,1.17,9.741,4.375c0.37,0.845,1.311,1.408,2.288,0.741c3.702-2.53,7.58-3.986,11.722-5.572
		c0.877-0.335,2.176-0.686,2.826-1.407c0.96-1.064,1.042-2.826,1.105-4.178c0.065-1.422-0.62-3.098-0.298-4.464
		c0.662-2.817,3.541-2.736,6.029-2.937c1.59-0.127,3.517-0.301,5.13-0.413c2.057-0.163,3.042,0.146,4.202,0.755
		c1.445,0.815,0.781,2.39,0.937,4.284c0.253,2.056-0.784,4.087,0.357,6.013c0.848,1.427,1.952,1.717,3.456,2.246
		c4.156,1.465,7.96,2.729,11.714,5.137c0.138,0.089,0.273,0.147,0.409,0.191c0.568,0.292,1.279,0.281,1.866-0.304
		c1.795-1.785,3.876-4.944,6.1-6.061c2.772-1.392,4.306,1.5,6.507,3.562c2.303,2.155,6.437,4.541,4.206,8.044
		c-1.096,1.722-3.729,2.369-5.126,3.896c-1.382,1.511-1.439,2.342-0.795,4.157c0.629,1.771,1.808,3.297,2.431,5.113
		c0.906,2.633,1.552,5.358,2.421,8.004c0.247,0.756,0.849,1.177,1.625,1.236c2.615,0.201,5.84-0.058,8.362,0.643
		c4.005,1.112,2.944,4.895,3.059,8.373C124.772,66.592,125.609,69.464,122.578,70.42z"/>
	<path fill="#626E85" d="M62.14,34.169c2.046-0.66,4.093-0.98,6.243-0.96c2.168,0.02,2.17-3.348,0-3.368
		c-2.428-0.023-4.827,0.335-7.14,1.081C59.19,31.585,60.068,34.838,62.14,34.169z"/>
	<path fill="#626E85" d="M80.878,35.141c1.77,0.464,3.377,1.265,4.768,2.461c1.635,1.406,4.027-0.965,2.382-2.382
		c-1.832-1.575-3.913-2.713-6.255-3.327C79.675,31.344,78.78,34.591,80.878,35.141z"/>
	<path fill="#626E85" d="M100.805,50.632c-0.741-2.099-1.751-4.051-3.103-5.823c-0.549-0.719-1.453-1.107-2.304-0.604
		c-0.708,0.419-1.159,1.574-0.604,2.303c1.17,1.535,2.118,3.199,2.764,5.019C98.276,53.556,101.53,52.682,100.805,50.632z"/>
	<path fill="#626E85" d="M99.489,64.452c-0.181,1.979-0.524,3.918-1.008,5.843c-0.529,2.103,2.718,3,3.246,0.896
		c0.558-2.217,0.923-4.462,1.129-6.738C103.054,62.295,99.685,62.309,99.489,64.452z"/>
	<path fill="#626E85" d="M94.954,80.874c-0.728-0.426-1.921-0.227-2.305,0.604c-0.79,1.711-1.985,3.051-3.636,3.969
		c-1.894,1.057-0.197,3.967,1.7,2.909c2.106-1.175,3.83-2.985,4.844-5.178C95.938,82.353,95.791,81.363,94.954,80.874z"/>
	<path fill="#626E85" d="M77.465,91.255c-1.924,0.348-3.854,0.606-5.801,0.778c-2.142,0.186-2.163,3.556,0,3.366
		c2.245-0.196,4.479-0.495,6.696-0.896C80.49,94.118,79.588,90.872,77.465,91.255z"/>
	<path fill="#626E85" d="M59.341,90.123c-2.004-0.557-3.791-1.452-5.464-2.685c-0.738-0.543-1.872-0.117-2.304,0.604
		c-0.509,0.85-0.124,1.767,0.605,2.304c1.888,1.39,4.009,2.396,6.268,3.023C60.538,93.95,61.43,90.702,59.341,90.123z"/>
	<path fill="#626E85" d="M42.409,73.396c-0.575-2.085-3.825-1.199-3.247,0.897c0.667,2.412,1.81,4.553,3.359,6.508
		c0.569,0.719,1.785,0.586,2.382,0c0.71-0.694,0.562-1.672,0-2.38C43.724,76.932,42.912,75.22,42.409,73.396z"/>
	<path fill="#626E85" d="M40.872,61.109c-0.022-2.052,0.114-4.086,0.454-6.112c0.357-2.119-2.887-3.03-3.247-0.895
		c-0.391,2.323-0.598,4.65-0.574,7.007C37.526,63.275,40.894,63.279,40.872,61.109z"/>
	<path fill="#626E85" d="M49.624,37.265c-2.039,1.254-3.857,2.819-5.359,4.684c-0.57,0.707-0.692,1.689,0,2.381
		c0.59,0.59,1.808,0.711,2.381,0c1.33-1.652,2.872-3.046,4.679-4.158C53.167,39.039,51.478,36.125,49.624,37.265z"/>
</g>
</svg>
